{"pageContext":{"nodes":[{"node":{"fields":{"slug":"article2","tags":["fggf"],"category":"test"}}},{"node":{"fields":{"slug":"third-article","tags":["hhh"],"category":"test"}}},{"node":{"fields":{"slug":"brno","tags":["brno"," czech"," city"],"category":"test"}}}],"page":1,"pages":2,"total":4,"limit":3,"next":"/2"}}