{"pageContext":{"nodes":[{"node":{"fields":{"slug":"article2","tags":["fggf"],"category":"Technology"}}},{"node":{"fields":{"slug":"third-article","tags":["hhh"],"category":"Education"}}},{"node":{"fields":{"slug":"brno","tags":["brno"," czech"," city"],"category":"Education"}}}],"page":1,"pages":2,"total":4,"limit":3,"next":"/2"}}