{"pageContext":{"nodes":[{"node":{"fields":{"slug":"all-about-education"}}}],"page":3,"pages":3,"total":3,"limit":1,"prev":"/2"}}