{"pageContext":{"nodes":[{"node":{"fields":{"slug":"all-about-education"}}}],"page":2,"pages":2,"total":3,"limit":2,"prev":"/"}}