{"pageContext":{"nodes":[{"node":{"fields":{"slug":"article2"}}},{"node":{"fields":{"slug":"third-article"}}}],"page":1,"pages":2,"total":3,"limit":2,"next":"/2"}}