{"pageContext":{"nodes":[{"node":{"fields":{"slug":"all-about-education","tags":["education"," theory"," practice "],"category":"Education"}}}],"page":2,"pages":2,"total":4,"limit":3,"prev":"/"}}