{"pageContext":{"nodes":[{"node":{"fields":{"slug":"third-article","tags":"hhh"}}}],"page":2,"pages":3,"total":3,"limit":1,"prev":"/","next":"/3"}}