{"pageContext":{"category":"test","nodes":[{"fields":{"slug":"article2","tags":["fggf"],"category":"test"}},{"fields":{"slug":"third-article","tags":["hhh"],"category":"test"}},{"fields":{"slug":"brno","tags":["brno"," czech"," city"],"category":"test"}}],"page":1,"pages":2,"total":4,"limit":3,"next":"/category/test/2"}}