{"pageContext":{"nodes":[{"node":{"fields":{"slug":"article2","tags":"fggf"}}}],"page":1,"pages":3,"total":3,"limit":1,"next":"/2"}}